^C:\USERS\MARK\DESKTOP\GRAPHICS WORK\VIEWPORTS - CURRENT WORKING MODEL FROM CLASS\FORCLASS\DEBUG\GLEE.OBJ|C:\USERS\MARK\DESKTOP\GRAPHICS WORK\VIEWPORTS - CURRENT WORKING MODEL FROM CLASS\FORCLASS\DEBUG\IMAGE_DXT.OBJ|C:\USERS\MARK\DESKTOP\GRAPHICS WORK\VIEWPORTS - CURRENT WORKING MODEL FROM CLASS\FORCLASS\DEBUG\IMAGE_HELPER.OBJ|C:\USERS\MARK\DESKTOP\GRAPHICS WORK\VIEWPORTS - CURRENT WORKING MODEL FROM CLASS\FORCLASS\DEBUG\INITSHADER.OBJ|C:\USERS\MARK\DESKTOP\GRAPHICS WORK\VIEWPORTS - CURRENT WORKING MODEL FROM CLASS\FORCLASS\DEBUG\SOIL.OBJ|C:\USERS\MARK\DESKTOP\GRAPHICS WORK\VIEWPORTS - CURRENT WORKING MODEL FROM CLASS\FORCLASS\DEBUG\STB_IMAGE_AUG.OBJ|C:\USERS\MARK\DESKTOP\GRAPHICS WORK\VIEWPORTS - CURRENT WORKING MODEL FROM CLASS\FORCLASS\DEBUG\VIEWPORTS.EXE.EMBED.MANIFEST.RES|C:\USERS\MARK\DESKTOP\GRAPHICS WORK\VIEWPORTS - CURRENT WORKING MODEL FROM CLASS\FORCLASS\DEBUG\VIEWPORTS.OBJ
/ERRORREPORT:PROMPT /OUT:"C:\Users\Mark\Desktop\Graphics Work\Viewports - Current Working Model From Class\Debug\Viewports.exe" /INCREMENTAL /NOLOGO freeglut.lib libSOIL.lib kernel32.lib user32.lib gdi32.lib winspool.lib comdlg32.lib advapi32.lib shell32.lib ole32.lib oleaut32.lib uuid.lib odbc32.lib odbccp32.lib /MANIFEST /ManifestFile:"Debug\Viewports.exe.intermediate.manifest" /MANIFESTUAC:"level='asInvoker' uiAccess='false'" /DEBUG /PDB:"C:\Users\Mark\Desktop\Graphics Work\Viewports - Current Working Model From Class\Debug\Viewports.pdb" /SUBSYSTEM:CONSOLE /TLBID:1 /DYNAMICBASE /NXCOMPAT /IMPLIB:"C:\Users\Mark\Desktop\Graphics Work\Viewports - Current Working Model From Class\Debug\Viewports.lib" /MACHINE:X86 Debug\Viewports.exe.embed.manifest.res
Debug\GLee.obj
Debug\image_DXT.obj
Debug\image_helper.obj
Debug\InitShader.obj
Debug\SOIL.obj
Debug\stb_image_aug.obj
Debug\Viewports.obj
